,ID,Age,Gender,Condition,Picture,Rating,Gossip
0,Carl,21,Male,1,Pictures\Woman (11).JPG,3.0,bandede af en stewardesse
1,Carl,21,Male,1,Pictures\Woman (6).JPG,2.0,slog et lille barn
2,Carl,21,Male,1,Pictures\Woman (8).JPG,3.0,hjalp en blind mand med at handle ind
3,Carl,21,Male,1,Pictures\Woman (1).JPG,1.0,satte sig og sked på åben gade
4,Carl,21,Male,1,Pictures\Man (1).JPG,3.0,overraskede sin kæreste med blomster
5,Carl,21,Male,1,Pictures\Man (9).JPG,1.0,gav sit sæde i bussen til en gravid kvinde
6,Carl,21,Male,1,Pictures\Man (13).JPG,2.0,spurgte sin lærer efter en blyant
7,Carl,21,Male,1,Pictures\Man (11).JPG,1.0,fyrede en medarbejder lige før jul
8,Carl,21,Male,1,Pictures\Man (10).JPG,2.0,købte en is til sit barn på en solskinsdag
9,Carl,21,Male,1,Pictures\Woman (4).JPG,4.0,læste en bog højt for beboere på et plejehjem
10,Carl,21,Male,1,Pictures\Man (8).JPG,1.0,kom med racistiske bemærkninger
11,Carl,21,Male,1,Pictures\Man (15).JPG,1.0,sad ved siden af en kvinde på toget til skole
12,Carl,21,Male,1,Pictures\Woman (2).JPG,4.0,spurgte en ekspedient efter toilettet
13,Carl,21,Male,1,Pictures\Man (7).JPG,1.0,smadrede en vens bil
14,Carl,21,Male,1,Pictures\Woman (10).JPG,2.0,gik forbi en mand på gaden
15,Carl,21,Male,1,Pictures\Woman (15).JPG,3.0,spurgte en butiksejer om et produkt på hylden
16,Carl,21,Male,1,Pictures\Man (12).JPG,1.0,tabte alle firmaets penge
17,Carl,21,Male,1,Pictures\Man (6).JPG,1.0,underviste en ordblind klassekammerat gratis
18,Carl,21,Male,1,Pictures\Woman (12).JPG,3.0,gav en ven et lift til lufthavnen
19,Carl,21,Male,1,Pictures\Man (2).jpg,2.0,lavede et lækkert måltid til sin kone
20,Carl,21,Male,1,Pictures\Man (5).JPG,1.0,så en person i den anden ende af lokalet
21,Carl,21,Male,1,Pictures\Man (3).JPG,2.0,kastede en stol efter sin klassekammerat
22,Carl,21,Male,1,Pictures\Woman (5).JPG,3.0,holdte en fødselsdagsfest for sin mor
23,Carl,21,Male,1,Pictures\Woman (14).JPG,4.0,tog elevatoren op med en kollega
24,Carl,21,Male,1,Pictures\Woman (3).JPG,2.0,spurgte dørmanden efter vejen til et museum
25,Carl,21,Male,1,Pictures\Man (14).jpg,1.0,løj over for politiet omkring en forbrydelse
26,Carl,21,Male,1,Pictures\Woman (13).JPG,2.0,hjalp en gammel dame med at bære sine indkøbsvarer
27,Carl,21,Male,1,Pictures\Woman (7).JPG,2.0,kørte hjem til en ven
28,Carl,21,Male,1,Pictures\Man (4).JPG,1.0,skred fra sin kæreste
29,Carl,21,Male,1,Pictures\Woman (9).JPG,4.0,læste en bog om borgmesteren
