,ID,Age,Gender,Condition,Picture,Rating,Gossip
0,Moni,55,Female,1,Pictures\Man (9).JPG,3.0,løj over for politiet omkring en forbrydelse
1,Moni,55,Female,1,Pictures\Man (7).JPG,4.0,købte en is til sit barn på en solskinsdag
2,Moni,55,Female,1,Pictures\Woman (3).JPG,2.0,bandede af en stewardesse
3,Moni,55,Female,1,Pictures\Man (8).JPG,5.0,spurgte dørmanden efter vejen til et museum
4,Moni,55,Female,1,Pictures\Man (2).jpg,2.0,slog et lille barn
5,Moni,55,Female,1,Pictures\Woman (15).JPG,5.0,lavede et lækkert måltid til sin kone
6,Moni,55,Female,1,Pictures\Man (12).JPG,5.0,holdte en fødselsdagsfest for sin mor
7,Moni,55,Female,1,Pictures\Woman (1).JPG,2.0,kastede en stol efter sin klassekammerat
8,Moni,55,Female,1,Pictures\Woman (12).JPG,5.0,sad ved siden af en kvinde på toget til skole
9,Moni,55,Female,1,Pictures\Man (5).JPG,5.0,hjalp en gammel dame med at bære sine indkøbsvarer
10,Moni,55,Female,1,Pictures\Woman (11).JPG,6.0,spurgte en butiksejer om et produkt på hylden
11,Moni,55,Female,1,Pictures\Woman (7).JPG,6.0,underviste en ordblind klassekammerat gratis
12,Moni,55,Female,1,Pictures\Woman (4).JPG,6.0,spurgte sin lærer efter en blyant
13,Moni,55,Female,1,Pictures\Man (14).jpg,6.0,gik forbi en mand på gaden
14,Moni,55,Female,1,Pictures\Man (10).JPG,6.0,læste en bog højt for beboere på et plejehjem
15,Moni,55,Female,1,Pictures\Woman (8).JPG,6.0,kørte hjem til en ven
16,Moni,55,Female,1,Pictures\Man (13).JPG,5.0,gav sit sæde i bussen til en gravid kvinde
17,Moni,55,Female,1,Pictures\Woman (14).JPG,5.0,læste en bog om borgmesteren
18,Moni,55,Female,1,Pictures\Man (1).JPG,5.0,tog elevatoren op med en kollega
19,Moni,55,Female,1,Pictures\Woman (10).JPG,6.0,overraskede sin kæreste med blomster
20,Moni,55,Female,1,Pictures\Man (3).JPG,2.0,fyrede en medarbejder lige før jul
21,Moni,55,Female,1,Pictures\Man (15).JPG,3.0,tabte alle firmaets penge
22,Moni,55,Female,1,Pictures\Woman (6).JPG,5.0,så en person i den anden ende af lokalet
23,Moni,55,Female,1,Pictures\Woman (13).JPG,5.0,smadrede en vens bil
24,Moni,55,Female,1,Pictures\Woman (2).JPG,5.0,spurgte en ekspedient efter toilettet
25,Moni,55,Female,1,Pictures\Man (6).JPG,3.0,skred fra sin kæreste
26,Moni,55,Female,1,Pictures\Man (11).JPG,1.0,satte sig og sked på åben gade
27,Moni,55,Female,1,Pictures\Man (4).JPG,5.0,gav en ven et lift til lufthavnen
28,Moni,55,Female,1,Pictures\Woman (5).JPG,6.0,hjalp en blind mand med at handle ind
29,Moni,55,Female,1,Pictures\Woman (9).JPG,4.0,kom med racistiske bemærkninger
