,ID,Age,Gender,Condition,Picture,Rating,Gossip
0,Jesper,23,Male,1,Pictures\Man (11).JPG,4.0,smadrede en vens bil
1,Jesper,23,Male,1,Pictures\Man (8).JPG,5.0,underviste en ordblind klassekammerat gratis
2,Jesper,23,Male,1,Pictures\Man (2).jpg,3.0,sad ved siden af en kvinde på toget til skole
3,Jesper,23,Male,1,Pictures\Woman (15).JPG,3.0,gik forbi en mand på gaden
4,Jesper,23,Male,1,Pictures\Man (9).JPG,2.0,holdte en fødselsdagsfest for sin mor
5,Jesper,23,Male,1,Pictures\Woman (4).JPG,4.0,kørte hjem til en ven
6,Jesper,23,Male,1,Pictures\Woman (8).JPG,3.0,kom med racistiske bemærkninger
7,Jesper,23,Male,1,Pictures\Man (7).JPG,2.0,løj over for politiet omkring en forbrydelse
8,Jesper,23,Male,1,Pictures\Woman (7).JPG,2.0,købte en is til sit barn på en solskinsdag
9,Jesper,23,Male,1,Pictures\Man (14).jpg,2.0,spurgte en ekspedient efter toilettet
10,Jesper,23,Male,1,Pictures\Woman (3).JPG,4.0,bandede af en stewardesse
11,Jesper,23,Male,1,Pictures\Man (1).JPG,3.0,satte sig og sked på åben gade
12,Jesper,23,Male,1,Pictures\Man (3).JPG,2.0,spurgte en butiksejer om et produkt på hylden
13,Jesper,23,Male,1,Pictures\Woman (6).JPG,3.0,skred fra sin kæreste
14,Jesper,23,Male,1,Pictures\Woman (14).JPG,3.0,fyrede en medarbejder lige før jul
15,Jesper,23,Male,1,Pictures\Man (6).JPG,2.0,overraskede sin kæreste med blomster
16,Jesper,23,Male,1,Pictures\Woman (5).JPG,5.0,læste en bog højt for beboere på et plejehjem
17,Jesper,23,Male,1,Pictures\Man (15).JPG,5.0,hjalp en blind mand med at handle ind
18,Jesper,23,Male,1,Pictures\Man (5).JPG,4.0,tabte alle firmaets penge
19,Jesper,23,Male,1,Pictures\Woman (12).JPG,2.0,hjalp en gammel dame med at bære sine indkøbsvarer
20,Jesper,23,Male,1,Pictures\Woman (9).JPG,4.0,spurgte dørmanden efter vejen til et museum
21,Jesper,23,Male,1,Pictures\Man (10).JPG,5.0,lavede et lækkert måltid til sin kone
22,Jesper,23,Male,1,Pictures\Woman (1).JPG,3.0,tog elevatoren op med en kollega
23,Jesper,23,Male,1,Pictures\Man (4).JPG,2.0,slog et lille barn
24,Jesper,23,Male,1,Pictures\Man (12).JPG,3.0,gav sit sæde i bussen til en gravid kvinde
25,Jesper,23,Male,1,Pictures\Woman (11).JPG,2.0,læste en bog om borgmesteren
26,Jesper,23,Male,1,Pictures\Woman (10).JPG,4.0,gav en ven et lift til lufthavnen
27,Jesper,23,Male,1,Pictures\Man (13).JPG,5.0,kastede en stol efter sin klassekammerat
28,Jesper,23,Male,1,Pictures\Woman (2).JPG,3.0,spurgte sin lærer efter en blyant
29,Jesper,23,Male,1,Pictures\Woman (13).JPG,2.0,så en person i den anden ende af lokalet
