,ID,Age,Gender,Condition,Picture,Rating,Gossip
0,Mikkel,24,Male,1,Pictures\Man (7).JPG,3.0,tabte alle firmaets penge
1,Mikkel,24,Male,1,Pictures\Woman (5).JPG,3.0,gav en ven et lift til lufthavnen
2,Mikkel,24,Male,1,Pictures\Woman (7).JPG,2.0,løj over for politiet omkring en forbrydelse
3,Mikkel,24,Male,1,Pictures\Woman (6).JPG,4.0,gik forbi en mand på gaden
4,Mikkel,24,Male,1,Pictures\Man (13).JPG,4.0,så en person i den anden ende af lokalet
5,Mikkel,24,Male,1,Pictures\Man (4).JPG,4.0,spurgte en butiksejer om et produkt på hylden
6,Mikkel,24,Male,1,Pictures\Man (1).JPG,5.0,hjalp en gammel dame med at bære sine indkøbsvarer
7,Mikkel,24,Male,1,Pictures\Man (15).JPG,5.0,spurgte sin lærer efter en blyant
8,Mikkel,24,Male,1,Pictures\Woman (15).JPG,5.0,skred fra sin kæreste
9,Mikkel,24,Male,1,Pictures\Woman (8).JPG,2.0,satte sig og sked på åben gade
10,Mikkel,24,Male,1,Pictures\Man (5).JPG,4.0,hjalp en blind mand med at handle ind
11,Mikkel,24,Male,1,Pictures\Woman (10).JPG,5.0,lavede et lækkert måltid til sin kone
12,Mikkel,24,Male,1,Pictures\Man (12).JPG,6.0,holdte en fødselsdagsfest for sin mor
13,Mikkel,24,Male,1,Pictures\Woman (11).JPG,4.0,spurgte en ekspedient efter toilettet
14,Mikkel,24,Male,1,Pictures\Woman (2).JPG,3.0,slog et lille barn
15,Mikkel,24,Male,1,Pictures\Woman (14).JPG,2.0,kom med racistiske bemærkninger
16,Mikkel,24,Male,1,Pictures\Man (6).JPG,5.0,underviste en ordblind klassekammerat gratis
17,Mikkel,24,Male,1,Pictures\Woman (13).JPG,4.0,læste en bog om borgmesteren
18,Mikkel,24,Male,1,Pictures\Woman (12).JPG,4.0,fyrede en medarbejder lige før jul
19,Mikkel,24,Male,1,Pictures\Woman (1).JPG,3.0,kastede en stol efter sin klassekammerat
20,Mikkel,24,Male,1,Pictures\Man (8).JPG,3.0,bandede af en stewardesse
21,Mikkel,24,Male,1,Pictures\Man (3).JPG,5.0,købte en is til sit barn på en solskinsdag
22,Mikkel,24,Male,1,Pictures\Man (10).JPG,4.0,sad ved siden af en kvinde på toget til skole
23,Mikkel,24,Male,1,Pictures\Woman (3).JPG,5.0,gav sit sæde i bussen til en gravid kvinde
24,Mikkel,24,Male,1,Pictures\Woman (4).JPG,6.0,læste en bog højt for beboere på et plejehjem
25,Mikkel,24,Male,1,Pictures\Man (11).JPG,5.0,tog elevatoren op med en kollega
26,Mikkel,24,Male,1,Pictures\Man (9).JPG,4.0,smadrede en vens bil
27,Mikkel,24,Male,1,Pictures\Man (2).jpg,5.0,spurgte dørmanden efter vejen til et museum
28,Mikkel,24,Male,1,Pictures\Man (14).jpg,4.0,overraskede sin kæreste med blomster
29,Mikkel,24,Male,1,Pictures\Woman (9).JPG,5.0,kørte hjem til en ven
