,ID,Age,Gender,Condition,Picture,Rating,Gossip
0,Mikkel2,22,Male,1,Pictures\Man (11).JPG,4.0,lavede et lækkert måltid til sin kone
1,Mikkel2,22,Male,1,Pictures\Man (4).JPG,3.0,smadrede en vens bil
2,Mikkel2,22,Male,1,Pictures\Man (2).jpg,3.0,sad ved siden af en kvinde på toget til skole
3,Mikkel2,22,Male,1,Pictures\Woman (5).JPG,3.0,gav en ven et lift til lufthavnen
4,Mikkel2,22,Male,1,Pictures\Man (14).jpg,2.0,gav sit sæde i bussen til en gravid kvinde
5,Mikkel2,22,Male,1,Pictures\Man (3).JPG,2.0,holdte en fødselsdagsfest for sin mor
6,Mikkel2,22,Male,1,Pictures\Man (13).JPG,5.0,så en person i den anden ende af lokalet
7,Mikkel2,22,Male,1,Pictures\Woman (3).JPG,5.0,gik forbi en mand på gaden
8,Mikkel2,22,Male,1,Pictures\Man (9).JPG,2.0,underviste en ordblind klassekammerat gratis
9,Mikkel2,22,Male,1,Pictures\Woman (11).JPG,3.0,tog elevatoren op med en kollega
10,Mikkel2,22,Male,1,Pictures\Man (12).JPG,3.0,købte en is til sit barn på en solskinsdag
11,Mikkel2,22,Male,1,Pictures\Man (10).JPG,5.0,læste en bog højt for beboere på et plejehjem
12,Mikkel2,22,Male,1,Pictures\Man (1).JPG,4.0,kastede en stol efter sin klassekammerat
13,Mikkel2,22,Male,1,Pictures\Woman (13).JPG,2.0,tabte alle firmaets penge
14,Mikkel2,22,Male,1,Pictures\Man (8).JPG,4.0,slog et lille barn
15,Mikkel2,22,Male,1,Pictures\Woman (9).JPG,5.0,løj over for politiet omkring en forbrydelse
16,Mikkel2,22,Male,1,Pictures\Woman (8).JPG,5.0,skred fra sin kæreste
17,Mikkel2,22,Male,1,Pictures\Man (15).JPG,5.0,satte sig og sked på åben gade
18,Mikkel2,22,Male,1,Pictures\Woman (10).JPG,2.0,kom med racistiske bemærkninger
19,Mikkel2,22,Male,1,Pictures\Man (5).JPG,3.0,spurgte en butiksejer om et produkt på hylden
20,Mikkel2,22,Male,1,Pictures\Woman (6).JPG,3.0,bandede af en stewardesse
21,Mikkel2,22,Male,1,Pictures\Woman (2).JPG,3.0,kørte hjem til en ven
22,Mikkel2,22,Male,1,Pictures\Woman (12).JPG,2.0,hjalp en blind mand med at handle ind
23,Mikkel2,22,Male,1,Pictures\Man (7).JPG,2.0,spurgte sin lærer efter en blyant
24,Mikkel2,22,Male,1,Pictures\Woman (7).JPG,3.0,spurgte en ekspedient efter toilettet
25,Mikkel2,22,Male,1,Pictures\Woman (15).JPG,4.0,læste en bog om borgmesteren
26,Mikkel2,22,Male,1,Pictures\Man (6).JPG,2.0,overraskede sin kæreste med blomster
27,Mikkel2,22,Male,1,Pictures\Woman (1).JPG,3.0,spurgte dørmanden efter vejen til et museum
28,Mikkel2,22,Male,1,Pictures\Woman (4).JPG,5.0,fyrede en medarbejder lige før jul
29,Mikkel2,22,Male,1,Pictures\Woman (14).JPG,5.0,hjalp en gammel dame med at bære sine indkøbsvarer
